<svg id="ico-search" xmlns="http://www.w3.org/2000/svg" width="20" height="20" viewBox="0 0 20 20">
  <rect id="Rectangle_661" data-name="Rectangle 661" width="20" height="20" fill="none"/>
  <g id="Group_2654" data-name="Group 2654" transform="translate(3.145 3.403)">
    <path id="Path_1856" data-name="Path 1856" d="M-.443-.189,3.939,3.467" transform="translate(10.558 9.533)" fill="none" stroke="#5b6670" stroke-linecap="round" stroke-width="1.6" opacity="0.55"/>
    <ellipse id="Ellipse_1" data-name="Ellipse 1" cx="5.594" cy="5.594" rx="5.594" ry="5.594" stroke-width="1.3" stroke="#a4aab0" stroke-linecap="round" stroke-linejoin="round" stroke-miterlimit="10" fill="none"/>
  </g>
</svg>
